[gd_scene load_steps=3 format=2]

[ext_resource path="res://Grid.gd" type="Script" id=1]
[ext_resource path="res://Cell.tscn" type="PackedScene" id=2]

[node name="Grid" type="Node"]
script = ExtResource( 1 )
cell_scene = ExtResource( 2 )
