[gd_scene load_steps=7 format=2]

[ext_resource path="res://HelpOverlay.gd" type="Script" id=1]
[ext_resource path="res://fonts/Xolonium-Regular.ttf" type="DynamicFontData" id=2]
[ext_resource path="res://HelpTemplate.gd" type="Script" id=3]

[sub_resource type="DynamicFont" id=1]
size = 12
font_data = ExtResource( 2 )

[sub_resource type="StyleBoxFlat" id=3]
bg_color = Color( 0.196078, 0.784314, 0.196078, 1 )

[sub_resource type="StyleBoxFlat" id=2]
content_margin_left = 3.0
content_margin_right = 3.0
content_margin_top = 3.0
content_margin_bottom = 3.0
bg_color = Color( 1, 1, 1, 1 )
border_width_left = 1
border_width_top = 1
border_width_right = 1
border_width_bottom = 1
border_color = Color( 0, 0, 0, 1 )

[node name="HelpOverlay" type="CanvasLayer"]
script = ExtResource( 1 )

[node name="Background" type="ColorRect" parent="."]
margin_right = 40.0
margin_bottom = 40.0
color = Color( 0, 0, 0, 0.25098 )

[node name="HelpHelp" type="Label" parent="."]
margin_top = 375.0
margin_right = 393.0
margin_bottom = 399.0
custom_colors/font_color = Color( 0, 0, 0, 1 )
custom_colors/font_outline_modulate = Color( 1, 1, 1, 1 )
custom_fonts/font = SubResource( 1 )
custom_styles/normal = SubResource( 3 )
text = "Press any key to flip through pages. Escape to leave."
align = 1
valign = 1
autowrap = true

[node name="HelpTemplate" type="Node2D" parent="."]
visible = false
script = ExtResource( 3 )

[node name="Label" type="Label" parent="HelpTemplate"]
margin_right = 200.0
margin_bottom = 45.0
custom_colors/font_color = Color( 0, 0, 0, 1 )
custom_colors/font_outline_modulate = Color( 1, 1, 1, 1 )
custom_fonts/font = SubResource( 1 )
custom_styles/normal = SubResource( 2 )
text = "This is the help text for the diagonal move ability"
autowrap = true
