[gd_scene load_steps=2 format=2]

[ext_resource path="res://Roller.gd" type="Script" id=1]

[node name="Roller" type="Node2D"]
script = ExtResource( 1 )

[node name="ReferenceRect" type="ReferenceRect" parent="."]
margin_right = 50.0
margin_bottom = 50.0
rect_clip_content = true
border_color = Color( 1, 1, 1, 0 )
border_width = 0.0
editor_only = false
